<?xml version="1.0" encoding="utf-8"?>
<!-- Generator: Adobe Illustrator 16.0.0, SVG Export Plug-In . SVG Version: 6.00 Build 0)  -->
<!DOCTYPE svg PUBLIC "-//W3C//DTD SVG 1.1//EN" "http://www.w3.org/Graphics/SVG/1.1/DTD/svg11.dtd">
<svg version="1.1" id="Layer_1" xmlns="http://www.w3.org/2000/svg" xmlns:xlink="http://www.w3.org/1999/xlink" x="0px" y="0px"
	 width="109.182px" height="142.578px" viewBox="0 0 109.182 142.578" enable-background="new 0 0 109.182 142.578"
	 xml:space="preserve">
<path fill="#FFFFFF" d="M99.499,142.579H9.685c-5.349,0-9.685-4.337-9.685-9.685V0h109.182v132.894
	C109.182,138.242,104.847,142.579,99.499,142.579"/>
<path fill="#4D4D4F" d="M27.941,102.652h7.408c1.054,0,1.883,0.903,1.883,1.958c0,1.079-0.829,1.959-1.883,1.959h-9.619
	c-1.23,0-2.209-0.954-2.209-2.134V91.601c0-1.18,0.979-2.134,2.209-2.134h9.619c1.054,0,1.883,0.903,1.883,1.959
	c0,1.08-0.829,1.957-1.883,1.957h-7.408v2.613h6.077c1.054,0,1.883,0.903,1.883,1.959c0,1.08-0.829,1.959-1.883,1.959h-6.077
	V102.652z"/>
<path fill="#4D4D4F" d="M50.065,103.48h-5.249l-0.577,1.883c-0.277,0.904-0.955,1.457-2.16,1.457c-1.331,0-2.11-0.954-2.11-2.034
	c0-0.251,0.101-0.678,0.202-0.931l4.218-12.33c0.427-1.279,1.281-2.309,3.115-2.309c1.833,0,2.736,1.054,3.164,2.309l4.119,12.33
	c0.075,0.229,0.175,0.68,0.175,0.931c0,1.281-0.954,2.034-2.235,2.034c-1.054,0-1.833-0.526-2.109-1.457L50.065,103.48z
	 M45.896,99.939h3.114l-1.532-5.198L45.896,99.939z"/>
<path fill="#4D4D4F" d="M68.697,94.138c-0.728,0-1.332-0.326-2.06-0.627c-0.552-0.227-1.18-0.453-1.984-0.453
	c-1.255,0-1.808,0.352-1.808,0.979c0,0.778,0.854,1.156,2.034,1.507c1.406,0.428,3.29,0.804,4.621,1.833
	c1.104,0.829,1.833,2.035,1.833,3.917c0,3.466-3.038,5.525-6.831,5.525c-0.929,0-2.837-0.15-4.344-0.729
	c-1.155-0.452-2.06-1.154-2.06-2.259c0-1.206,0.955-2.111,2.085-2.111c0.603,0,1.129,0.303,1.757,0.604
	c0.678,0.327,1.431,0.679,2.511,0.679c1.858,0,2.059-0.93,2.059-1.356c0-0.879-0.903-1.307-2.109-1.683
	c-1.306-0.427-3.013-0.805-4.294-1.732c-1.13-0.854-1.933-2.085-1.933-4.094c0-2.736,2.311-4.897,6.73-4.897
	c1.005,0,2.737,0.102,4.068,0.653c1.03,0.428,1.809,1.104,1.809,2.185C70.782,93.235,69.903,94.138,68.697,94.138"/>
<path fill="#4D4D4F" d="M83.513,99.662v5.023c0,1.181-1.029,2.135-2.21,2.135c-1.205,0-2.209-0.954-2.209-2.135v-5.048l-4.52-6.906
	c-0.251-0.401-0.403-0.903-0.403-1.381c0-1.229,0.955-2.108,2.186-2.108c0.729,0,1.431,0.326,1.833,0.954l3.089,5.022l3.189-5.049
	c0.401-0.602,1.105-0.928,1.833-0.928c1.23,0,2.185,0.903,2.185,2.134c0,0.477-0.125,0.979-0.401,1.382L83.513,99.662z"/>
<path fill="#4D4D4F" d="M37.924,125.781c-2.084,2.159-4.847,2.562-7.333,2.562h-4.495c-1.23,0-2.21-0.955-2.21-2.136v-12.831
	c0-1.18,0.979-2.135,2.21-2.135h4.822c2.511,0,4.922,0.401,7.006,2.562c1.255,1.305,2.109,3.238,2.109,5.976
	C40.033,122.542,39.179,124.474,37.924,125.781 M28.306,124.626h1.983c1.908,0,3.465-0.479,4.37-1.708
	c0.552-0.753,0.854-1.783,0.854-3.14c0-1.607-0.427-2.737-1.18-3.49c-0.93-0.955-2.335-1.331-4.043-1.331h-1.983V124.626z"/>
<path fill="#4D4D4F" d="M47.616,124.425h7.408c1.055,0,1.884,0.903,1.884,1.958c0,1.079-0.829,1.959-1.884,1.959h-9.618
	c-1.231,0-2.21-0.954-2.21-2.134v-12.834c0-1.18,0.979-2.134,2.21-2.134h9.618c1.055,0,1.884,0.904,1.884,1.959
	c0,1.08-0.829,1.957-1.884,1.957h-7.408v2.613h6.077c1.055,0,1.883,0.903,1.883,1.959c0,1.08-0.828,1.959-1.883,1.959h-6.077
	V124.425z"/>
<path fill="#4D4D4F" d="M68.735,125.254h-5.249l-0.577,1.882c-0.277,0.904-0.954,1.457-2.159,1.457
	c-1.331,0-2.111-0.954-2.111-2.034c0-0.251,0.102-0.678,0.202-0.931l4.218-12.33c0.427-1.279,1.282-2.309,3.114-2.309
	c1.833,0,2.737,1.056,3.164,2.309l4.119,12.33c0.075,0.229,0.175,0.68,0.175,0.931c0,1.281-0.954,2.034-2.234,2.034
	c-1.054,0-1.833-0.526-2.11-1.457L68.735,125.254z M64.566,121.712h3.114l-1.533-5.198L64.566,121.712z"/>
<path fill="#4D4D4F" d="M76.243,113.149c0-1.18,0.979-2.134,2.21-2.134c1.23,0,2.209,0.954,2.209,2.134v11.275h5.424
	c1.055,0,1.884,0.903,1.884,1.959c0,1.079-0.829,1.959-1.884,1.959h-7.634c-1.231,0-2.21-0.955-2.21-2.136V113.149z"/>
<path fill="#EC1C24" d="M41.477,80h-8.498c-2.476,0-4.005-2.703-2.731-4.825l34.404-57.338c0.575-0.959,1.611-1.546,2.731-1.546
	h8.498c2.476,0,4.005,2.701,2.731,4.824L44.208,78.453C43.632,79.412,42.595,80,41.477,80"/>
<path fill="#EC1C24" d="M28.289,30.535c-0.027-0.104-0.041-0.208-0.065-0.313c2.521,3.994,7.834,6.346,13.305,5.496
	c0.179-0.028,0.35-0.073,0.525-0.108c1.459-0.35,5.542-1.695,6.67-5.956c0.682-3.232-1.039-6.319-1.846-7.636
	c-2.412-3.46-6.415-5.728-10.953-5.728c-7.373,0-13.351,5.977-13.351,13.351c0,7.374,5.978,13.351,13.351,13.351
	c5.252,0,9.782-3.038,11.963-7.447c-1.438,1.525-3.298,2.688-5.476,3.257C36.23,40.418,29.907,36.718,28.289,30.535"/>
<path fill="#EC1C24" d="M80.894,65.752c0.027,0.104,0.042,0.208,0.066,0.313c-2.521-3.994-7.834-6.346-13.307-5.496
	c-0.18,0.027-0.348,0.073-0.524,0.107c-1.459,0.351-5.542,1.695-6.67,5.957c-0.681,3.232,1.04,6.318,1.847,7.637
	C64.717,77.73,68.72,80,73.258,80c7.374,0,13.351-5.979,13.351-13.353c0-7.373-5.977-13.351-13.351-13.351
	c-5.252,0-9.782,3.039-11.962,7.447c1.438-1.524,3.298-2.687,5.475-3.256C72.953,55.87,79.276,59.571,80.894,65.752"/>
</svg>
